{"data":[{"id":392,"first_name":"Malachi","height_feet":null,"height_inches":null,"last_name":"Richardson","position":"G","team":{"id":28,"abbreviation":"TOR","city":"Toronto","conference":"East","division":"Atlantic","full_name":"Toronto Raptors","name":"Raptors"},"weight_pounds":null}],"meta":{"total_pages":1,"current_page":1,"next_page":null,"per_page":25,"total_count":1}},"position":"","team":{"id":6,"abbreviation":"CLE","city":"Cleveland","conference":"East","division":"Central","full_name":"Cleveland Cavaliers","name":"Cavaliers"},"weight_pounds":null},{"id":518,"first_name":"Alaa","height_feet":null,"height_inches":null,"last_name":"Abdelnaby","position":"","team":{"id":25,"abbreviation":"POR","city":"Portland","conference":"West","division":"Northwest","full_name":"Portland Trail Blazers","name":"Trail Blazers"},"weight_pounds":null},{"id":533,"first_name":"Bill","height_feet":null,"height_inches":null,"last_name":"Laimbeer","position":"","team":{"id":9,"abbreviation":"DET","city":"Detroit","conference":"East","division":"Central","full_name":"Detroit Pistons","name":"Pistons"},"weight_pounds":null},{"id":540,"first_name":"Hakeem","height_feet":null,"height_inches":null,"last_name":"Olajuwon","position":"","team":{"id":11,"abbreviation":"HOU","city":"Houston","conference":"West","division":"Southwest","full_name":"Houston Rockets","name":"Rockets"},"weight_pounds":null},{"id":543,"first_name":"Jerome","height_feet":null,"height_inches":null,"last_name":"Lane","position":"","team":{"id":8,"abbreviation":"DEN","city":"Denver","conference":"West","division":"Northwest","full_name":"Denver Nuggets","name":"Nuggets"},"weight_pounds":null},{"id":547,"first_name":"Mark","height_feet":null,"height_inches":null,"last_name":"Alarie","position":"","team":{"id":30,"abbreviation":"WAS","city":"Washington","conference":"East","division":"Southeast","full_name":"Washington Wizards","name":"Wizards"},"weight_pounds":null},{"id":560,"first_name":"Rolando","height_feet":null,"height_inches":null,"last_name":"Blackman","position":"","team":{"id":7,"abbreviation":"DAL","city":"Dallas","conference":"West","division":"Southwest","full_name":"Dallas Mavericks","name":"Mavericks"},"weight_pounds":null},{"id":572,"first_name":"Larry","height_feet":null,"height_inches":null,"last_name":"Smith","position":"","team":{"id":11,"abbreviation":"HOU","city":"Houston","conference":"West","division":"Southwest","full_name":"Houston Rockets","name":"Rockets"},"weight_pounds":null},{"id":587,"first_name":"Gerald","height_feet":null,"height_inches":null,"last_name":"Glass","position":"","team":{"id":18,"abbreviation":"MIN","city":"Minnesota","conference":"West","division":"Northwest","full_name":"Minnesota Timberwolves","name":"Timberwolves"},"weight_pounds":null},{"id":591,"first_name":"Sherman","height_feet":null,"height_inches":null,"last_name":"Douglas","position":"","team":{"id":16,"abbreviation":"MIA","city":"Miami","conference":"East","division":"Southeast","full_name":"Miami Heat","name":"Heat"},"weight_pounds":null},{"id":595,"first_name":"Lance","height_feet":null,"height_inches":null,"last_name":"Blanks","position":"","team":{"id":9,"abbreviation":"DET","city":"Detroit","conference":"East","division":"Central","full_name":"Detroit Pistons","name":"Pistons"},"weight_pounds":null},{"id":602,"first_name":"Lafayette","height_feet":null,"height_inches":null,"last_name":"Lever","position":"","team":{"id":7,"abbreviation":"DAL","city":"Dallas","conference":"West","division":"Southwest","full_name":"Dallas Mavericks","name":"Mavericks"},"weight_pounds":null},{"id":612,"first_name":"Delaney","height_feet":null,"height_inches":null,"last_name":"Rudd","position":"","team":{"id":29,"abbreviation":"UTA","city":"Utah","conference":"West","division":"Northwest","full_name":"Utah Jazz","name":"Jazz"},"weight_pounds":null},{"id":623,"first_name":"Larry","height_feet":null,"height_inches":null,"last_name":"Robinson","position":"","team":{"id":30,"abbreviation":"WAS","city":"Washington","conference":"East","division":"Southeast","full_name":"Washington Wizards","name":"Wizards"},"weight_pounds":null},{"id":636,"first_name":"Blair","height_feet":null,"height_inches":null,"last_name":"Rasmussen","position":"","team":{"id":8,"abbreviation":"DEN","city":"Denver","conference":"West","division":"Northwest","full_name":"Denver Nuggets","name":"Nuggets"},"weight_pounds":null},{"id":641,"first_name":"Matt","height_feet":null,"height_inches":null,"last_name":"Bullard","position":"","team":{"id":11,"abbreviation":"HOU","city":"Houston","conference":"West","division":"Southwest","full_name":"Houston Rockets","name":"Rockets"},"weight_pounds":null},{"id":642,"first_name":"Alan","height_feet":null,"height_inches":null,"last_name":"Ogg","position":"","team":{"id":16,"abbreviation":"MIA","city":"Miami","conference":"East","division":"Southeast","full_name":"Miami Heat","name":"Heat"},"weight_pounds":null},{"id":644,"first_name":"Larry","height_feet":null,"height_inches":null,"last_name":"Krystkowiak","position":"","team":{"id":17,"abbreviation":"MIL","city":"Milwaukee","conference":"East","division":"Central","full_name":"Milwaukee Bucks","name":"Bucks"},"weight_pounds":null},{"id":671,"first_name":"Larry","height_feet":null,"height_inches":null,"last_name":"Johnson","position":"","team":{"id":4,"abbreviation":"CHA","city":"Charlotte","conference":"East","division":"Southeast","full_name":"Charlotte Hornets","name":"Hornets"},"weight_pounds":null},{"id":690,"first_name":"Lanard","height_feet":null,"height_inches":null,"last_name":"Copeland","position":"","team":{"id":13,"abbreviation":"LAC","city":"LA","conference":"West","division":"Pacific","full_name":"LA Clippers","name":"Clippers"},"weight_pounds":null},{"id":692,"first_name":"Larry","height_feet":null,"height_inches":null,"last_name":"Stewart","position":"","team":{"id":30,"abbreviation":"WAS","city":"Washington","conference":"East","division":"Southeast","full_name":"Washington Wizards","name":"Wizards"},"weight_pounds":null},{"id":701,"first_name":"Labradford","height_feet":null,"height_inches":null,"last_name":"Smith","position":"","team":{"id":30,"abbreviation":"WAS","city":"Washington","conference":"East","division":"Southeast","full_name":"Washington Wizards","name":"Wizards"},"weight_pounds":null},{"id":712,"first_name":"Jeff","height_feet":null,"height_inches":null,"last_name":"Ruland","position":"","team":{"id":23,"abbreviation":"PHI","city":"Philadelphia","conference":"East","division":"Atlantic","full_name":"Philadelphia 76ers","name":"76ers"},"weight_pounds":null},{"id":714,"first_name":"Lamont","height_feet":null,"height_inches":null,"last_name":"Strothers","position":"","team":{"id":25,"abbreviation":"POR","city":"Portland","conference":"West","division":"Northwest","full_name":"Portland Trail Blazers","name":"Trail Blazers"},"weight_pounds":null}],"meta":{"total_pages":11,"current_page":1,"next_page":2,"per_page":25,"total_count":251}}al_pages":3,"current_page":1,"next_page":2,"per_page":25,"total_count":63}}