{"data":[{"id":348,"first_name":"James","height_feet":null,"height_inches":null,"last_name":"Nunnally","position":"F","team":{"id":18,"abbreviation":"MIN","city":"Minnesota","conference":"West","division":"Northwest","full_name":"Minnesota Timberwolves","name":"Timberwolves"},"weight_pounds":null},{"id":542,"first_name":"James","height_feet":null,"height_inches":null,"last_name":"Donaldson","position":"","team":{"id":7,"abbreviation":"DAL","city":"Dallas","conference":"West","division":"Southwest","full_name":"Dallas Mavericks","name":"Mavericks"},"weight_pounds":null},{"id":581,"first_name":"James","height_feet":null,"height_inches":null,"last_name":"Edwards","position":"","team":{"id":9,"abbreviation":"DET","city":"Detroit","conference":"East","division":"Central","full_name":"Detroit Pistons","name":"Pistons"},"weight_pounds":null},{"id":814,"first_name":"James","height_feet":null,"height_inches":null,"last_name":"Robinson","position":"","team":{"id":25,"abbreviation":"POR","city":"Portland","conference":"West","division":"Northwest","full_name":"Portland Trail Blazers","name":"Trail Blazers"},"weight_pounds":null},{"id":923,"first_name":"James","height_feet":null,"height_inches":null,"last_name":"Blackwell","position":"","team":{"id":4,"abbreviation":"CHA","city":"Charlotte","conference":"East","division":"Southeast","full_name":"Charlotte Hornets","name":"Hornets"},"weight_pounds":null},{"id":1056,"first_name":"James","height_feet":null,"height_inches":null,"last_name":"Scott","position":"","team":{"id":16,"abbreviation":"MIA","city":"Miami","conference":"East","division":"Southeast","full_name":"Miami Heat","name":"Heat"},"weight_pounds":null},{"id":1137,"first_name":"James","height_feet":null,"height_inches":null,"last_name":"Cotton","position":"","team":{"id":21,"abbreviation":"OKC","city":"Oklahoma City","conference":"West","division":"Northwest","full_name":"Oklahoma City Thunder","name":"Thunder"},"weight_pounds":null},{"id":1138,"first_name":"James","height_feet":null,"height_inches":null,"last_name":"Collins","position":"","team":{"id":13,"abbreviation":"LAC","city":"LA","conference":"West","division":"Pacific","full_name":"LA Clippers","name":"Clippers"},"weight_pounds":null},{"id":1163,"first_name":"Jerome","height_feet":null,"height_inches":null,"last_name":"James","position":"","team":{"id":26,"abbreviation":"SAC","city":"Sacramento","conference":"West","division":"Pacific","full_name":"Sacramento Kings","name":"Kings"},"weight_pounds":null},{"id":1227,"first_name":"James","height_feet":null,"height_inches":null,"last_name":"Posey","position":"F","team":{"id":8,"abbreviation":"DEN","city":"Denver","conference":"West","division":"Northwest","full_name":"Denver Nuggets","name":"Nuggets"},"weight_pounds":null},{"id":1268,"first_name":"Tim","height_feet":null,"height_inches":null,"last_name":"James","position":"","team":{"id":16,"abbreviation":"MIA","city":"Miami","conference":"East","division":"Southeast","full_name":"Miami Heat","name":"Heat"},"weight_pounds":null},{"id":1394,"first_name":"Mike","height_feet":null,"height_inches":null,"last_name":"James","position":"","team":{"id":16,"abbreviation":"MIA","city":"Miami","conference":"East","division":"Southeast","full_name":"Miami Heat","name":"Heat"},"weight_pounds":null},{"id":1517,"first_name":"James","height_feet":null,"height_inches":null,"last_name":"Jones","position":"","team":{"id":12,"abbreviation":"IND","city":"Indiana","conference":"East","division":"Central","full_name":"Indiana Pacers","name":"Pacers"},"weight_pounds":null},{"id":1582,"first_name":"James","height_feet":null,"height_inches":null,"last_name":"Thomas","position":"","team":{"id":25,"abbreviation":"POR","city":"Portland","conference":"West","division":"Northwest","full_name":"Portland Trail Blazers","name":"Trail Blazers"},"weight_pounds":null},{"id":1611,"first_name":"James","height_feet":null,"height_inches":null,"last_name":"Singleton","position":"","team":{"id":13,"abbreviation":"LAC","city":"LA","conference":"West","division":"Pacific","full_name":"LA Clippers","name":"Clippers"},"weight_pounds":null},{"id":1664,"first_name":"James","height_feet":null,"height_inches":null,"last_name":"Lang","position":"","team":{"id":1,"abbreviation":"ATL","city":"Atlanta","conference":"East","division":"Southeast","full_name":"Atlanta Hawks","name":"Hawks"},"weight_pounds":null},{"id":1725,"first_name":"James","height_feet":null,"height_inches":null,"last_name":"White","position":"","team":{"id":27,"abbreviation":"SAS","city":"San Antonio","conference":"West","division":"Southwest","full_name":"San Antonio Spurs","name":"Spurs"},"weight_pounds":null},{"id":1729,"first_name":"James","height_feet":null,"height_inches":null,"last_name":"Augustine","position":"","team":{"id":22,"abbreviation":"ORL","city":"Orlando","conference":"East","division":"Southeast","full_name":"Orlando Magic","name":"Magic"},"weight_pounds":null},{"id":1790,"first_name":"JamesOn","height_feet":null,"height_inches":null,"last_name":"Curry","position":"","team":{"id":5,"abbreviation":"CHI","city":"Chicago","conference":"East","division":"Central","full_name":"Chicago Bulls","name":"Bulls"},"weight_pounds":null},{"id":1884,"first_name":"Damion","height_feet":null,"height_inches":null,"last_name":"James","position":"","team":{"id":3,"abbreviation":"BKN","city":"Brooklyn","conference":"East","division":"Atlantic","full_name":"Brooklyn Nets","name":"Nets"},"weight_pounds":null},{"id":1897,"first_name":"James","height_feet":null,"height_inches":null,"last_name":"Anderson","position":"","team":{"id":27,"abbreviation":"SAS","city":"San Antonio","conference":"West","division":"Southwest","full_name":"San Antonio Spurs","name":"Spurs"},"weight_pounds":null},{"id":1981,"first_name":"Bernard","height_feet":null,"height_inches":null,"last_name":"James","position":"","team":{"id":7,"abbreviation":"DAL","city":"Dallas","conference":"West","division":"Southwest","full_name":"Dallas Mavericks","name":"Mavericks"},"weight_pounds":null},{"id":2059,"first_name":"James","height_feet":null,"height_inches":null,"last_name":"Southerland","position":"","team":{"id":4,"abbreviation":"CHA","city":"Charlotte","conference":"East","division":"Southeast","full_name":"Charlotte Hornets","name":"Hornets"},"weight_pounds":null},{"id":2084,"first_name":"James","height_feet":null,"height_inches":null,"last_name":"Young","position":"","team":{"id":2,"abbreviation":"BOS","city":"Boston","conference":"East","division":"Atlantic","full_name":"Boston Celtics","name":"Celtics"},"weight_pounds":null},{"id":2116,"first_name":"James","height_feet":null,"height_inches":null,"last_name":"Michael McAdoo","position":"","team":{"id":10,"abbreviation":"GSW","city":"Golden State","conference":"West","division":"Pacific","full_name":"Golden State Warriors","name":"Warriors"},"weight_pounds":null}],"meta":{"total_pages":2,"current_page":1,"next_page":2,"per_page":25,"total_count":40}}